{
  "images" : [
    {
      "idiom" : "universal",
      "filename" : "ion-ios-more_24_0_ffffff_none-1.png",
      "scale" : "1x"
    },
    {
      "idiom" : "universal",
      "filename" : "ion-ios-more_48_0_ffffff_none.png",
      "scale" : "2x"
    },
    {
      "idiom" : "universal",
      "filename" : "ion-ios-more_72_0_ffffff_none.png",
      "scale" : "3x"
    }
  ],
  "info" : {
    "version" : 1,
    "author" : "xcode"
  }
}